{
  "files": {
    "main.css": "/static/css/main.42482d81.chunk.css",
    "main.js": "/static/js/main.0954970a.chunk.js",
    "main.js.map": "/static/js/main.0954970a.chunk.js.map",
    "runtime-main.js": "/static/js/runtime-main.7e4c7402.js",
    "runtime-main.js.map": "/static/js/runtime-main.7e4c7402.js.map",
    "static/css/2.7ae400ca.chunk.css": "/static/css/2.7ae400ca.chunk.css",
    "static/js/2.a7dfa984.chunk.js": "/static/js/2.a7dfa984.chunk.js",
    "static/js/2.a7dfa984.chunk.js.map": "/static/js/2.a7dfa984.chunk.js.map",
    "index.html": "/index.html",
    "precache-manifest.94b3eeed78a35b16f6dbcea33d87a397.js": "/precache-manifest.94b3eeed78a35b16f6dbcea33d87a397.js",
    "service-worker.js": "/service-worker.js",
    "static/css/2.7ae400ca.chunk.css.map": "/static/css/2.7ae400ca.chunk.css.map",
    "static/css/main.42482d81.chunk.css.map": "/static/css/main.42482d81.chunk.css.map",
    "static/js/2.a7dfa984.chunk.js.LICENSE.txt": "/static/js/2.a7dfa984.chunk.js.LICENSE.txt",
    "static/media/aguacate.svg": "/static/media/aguacate.a4a4c8bb.svg",
    "static/media/aislado.png": "/static/media/aislado.a36ba7f4.png",
    "static/media/altura.png": "/static/media/altura.6c106eb8.png",
    "static/media/avatar.svg": "/static/media/avatar.b76ae5da.svg",
    "static/media/bloquear.svg": "/static/media/bloquear.2853607d.svg",
    "static/media/calendarfruit.png": "/static/media/calendarfruit.9035f0d6.png",
    "static/media/capitan-cereza.png": "/static/media/capitan-cereza.1a4ac1ef.png",
    "static/media/capitan-fresa.png": "/static/media/capitan-fresa.a3c29b4c.png",
    "static/media/capitan-manzana.png": "/static/media/capitan-manzana.76445abf.png",
    "static/media/capitan-pera.png": "/static/media/capitan-pera.3ea082e9.png",
    "static/media/capitan-piña.png": "/static/media/capitan-piña.8a08c345.png",
    "static/media/capitan-platano.png": "/static/media/capitan-platano.cf54ccf2.png",
    "static/media/capitan-sandia.png": "/static/media/capitan-sandia.e105c609.png",
    "static/media/capitana-limon.png": "/static/media/capitana-limon.ba83b9af.png",
    "static/media/cara-triste.svg": "/static/media/cara-triste.6abd1142.svg",
    "static/media/cena.png": "/static/media/cena.b1400df4.png",
    "static/media/charla.svg": "/static/media/charla.2484f9dd.svg",
    "static/media/close.svg": "/static/media/close.50f2880b.svg",
    "static/media/comunicacion.svg": "/static/media/comunicacion.e9c55646.svg",
    "static/media/corriendo.svg": "/static/media/corriendo.bd1680f7.svg",
    "static/media/danza.svg": "/static/media/danza.2b049a54.svg",
    "static/media/deporte.png": "/static/media/deporte.37e06ea5.png",
    "static/media/dieta.png": "/static/media/dieta.d8692c3e.png",
    "static/media/distancia.png": "/static/media/distancia.8c1ece74.png",
    "static/media/dulces.png": "/static/media/dulces.daeba903.png",
    "static/media/dx.light.css": "/static/media/dxicons.fd4164a9.woff",
    "static/media/estrella.svg": "/static/media/estrella.7dc6e5d5.svg",
    "static/media/feliz.svg": "/static/media/feliz.6820cd78.svg",
    "static/media/informacion.svg": "/static/media/informacion.81f45dfa.svg",
    "static/media/integrales.png": "/static/media/integrales.c21cc4ea.png",
    "static/media/lavar.png": "/static/media/lavar.d2d0408f.png",
    "static/media/lavarmanos.png": "/static/media/lavarmanos.5cc232f7.png",
    "static/media/mas.svg": "/static/media/mas.8d12c410.svg",
    "static/media/mascarilla.png": "/static/media/mascarilla.578dd657.png",
    "static/media/ninos.svg": "/static/media/ninos.78ba1c6a.svg",
    "static/media/oms.png": "/static/media/oms.821bf350.png",
    "static/media/sanidad.png": "/static/media/sanidad.f5783e4b.png",
    "static/media/star.png": "/static/media/star.77e86666.png",
    "static/media/te.png": "/static/media/te.d13327f1.png",
    "static/media/ventana.png": "/static/media/ventana.c13b6718.png"
  },
  "entrypoints": [
    "static/js/runtime-main.7e4c7402.js",
    "static/css/2.7ae400ca.chunk.css",
    "static/js/2.a7dfa984.chunk.js",
    "static/css/main.42482d81.chunk.css",
    "static/js/main.0954970a.chunk.js"
  ]
}